module gitlab.com/jzafran/url-lookup

go 1.15

require (
	github.com/alecthomas/template v0.0.0-20190718012654-fb15b899a751
	github.com/gin-gonic/gin v1.6.3
	github.com/rs/zerolog v1.20.0
	github.com/stretchr/testify v1.6.1
	github.com/swaggo/files v0.0.0-20190704085106-630677cd5c14
	github.com/swaggo/gin-swagger v1.3.0
	github.com/swaggo/swag v1.5.1
	github.com/unrolled/secure v1.0.8
	github.com/urfave/cli/v2 v2.3.0
)
